{
    "updated": "2015-10-15",
    "officers": [["wolfy1339", "Fleet Admiral"],
        ["Cacophony", "Admiral"],
        ["FeynmanLogomaker", "Admiral"],
        ["io", "Admiral"],
        ["Mrprocom", "Admiral"],
        ["OC39648", "Admiral"],
        ["benthecrazy", "Commander"],
        ["HitlerSucks", "Commander"],
        ["nucular", "Commander"],
        ["Sandwichlizard", "Commander"],
        ["Lord_Bowserinator", "Lieutenant"],
        ["Box-Poorsoft", "Lieutenant" ],
        ["DarthGhostBuster", "Lieutenant"],
     	["JamesB", "Lieutenant"],
        ["NUCLEAR_FOX", "Lieutenant"],
        ["PyroDude", "Lieutenant"],
        ["ShadowPlasma", "Lieutenant"],
        ["dom2mom", "Chief Warrant"],
        ["KydonShadow", "Chief Warrant"],
        ["minecraft-physics", "Chief Warrant"],
     	["nijalninja98", "Chief Warrant"],
        ["Schneumer", "Chief Warrant"],
        ["UC17", "Warrant Officer"]],
    "enlisted": [["Alt-Factorial", "Petty Officer"],
        ["DanielGalrito", "Petty Officer"],
        ["Free2Copy", "Petty Officer"],
        ["johnpears", "Petty Officer"],
        ["Kikkin", "Petty Officer"]],
    "preofficers": [["HMMurdock", "Seaman"],
        ["shadowninja16", "Seaman"],
        ["159819", "Seaman Apprentice"],
        ["2015", "Seaman Apprentice"],
        ["594695", "Seaman Apprentice"],
        ["akronmantpt", "Seaman Apprentice"],
        ["arsanyo", "Seaman Apprentice"],
        ["aryaj", "Seaman Apprentice"],
        ["Atomic10", "Seaman Apprentice"],
        ["bacon-slayer", "Seaman Apprentice"],
        ["BMNrep1", "Seaman Apprentice"],
        ["BrickBuiltStudios", "Seaman Apprentice"],
        ["Bungie", "Seaman Apprentice"],
        ["C_D_Pro", "Seaman Apprentice"],
        ["cowman1234", "Seaman Apprentice"],
        ["cracker1000", "Seaman Apprentice"],
        ["Cschuttey", "Seaman Apprentice"],
        ["CycroEnerugi", "Seaman Apprentice"],
        ["DarthGhostBuster", "Seaman Apprentice"],
        ["deathwish1234", "Seaman Apprentice"],
        ["drogtar", "Seaman Apprentice"],
        ["EvilFox", "Seaman Apprentice"],
        ["explosivepowder", "Seaman Apprentice"],
        ["FireDragon", "Seaman Apprentice"],
        ["gajawesomeness", "Seaman Apprentice"],
        ["gamer1234", "Seaman Apprentice"],
        ["Gary55", "Seaman Apprentice"],
        ["GodOfEarthAndAll", "Seaman Apprentice"],
        ["guiopd", "Seaman Apprentice"],
        ["iamdumb", "Seaman Apprentice"],
        ["ILLADVISED", "Seaman Apprentice"],
        ["jay301", "Seaman Apprentice"],
        ["KB", "Seaman Apprentice"],
        ["killerchickens", "Seaman Apprentice"],
        ["kkawesome", "Seaman Apprentice"],
        ["konsole", "Seaman Apprentice"],
        ["Lagnadium82", "Seaman Apprentice"],
        ["Lord_Herobrine", "Seaman Apprentice"],
        ["MadisonSilver", "Seaman Apprentice"],
        ["madnoodle", "Seaman Apprentice"],
        ["Mandan", "Seaman Apprentice"],
        ["mecha-man", "Seaman Apprentice"],
        ["meganuke9", "Seaman Apprentice"],
        ["Miles12", "Seaman Apprentice"],
        ["MiningMarsh", "Seaman Apprentice"],
        ["nicolasgaymer777", "Seaman Apprentice"],
        ["orcasaves", "Seaman Apprentice"],
        ["physicsrocks", "Seaman Apprentice"],
        ["powder_generator", "Seaman Apprentice"],
        ["purplepuppys13", "Seaman Apprentice"],
        ["RCAProduction", "Seaman Apprentice"],
        ["RedWagon", "Seaman Apprentice"],
        ["RROONNAANN", "Seaman Apprentice"],
        ["sails23", "Seaman Apprentice"],
        ["ScienceBoy", "Seaman Apprentice"],
        ["Skitz", "Seaman Apprentice"],
        ["SopaXorzTaker", "Seaman Apprentice"],
        ["store20", "Seaman Apprentice"],
        ["stuntmaster12", "Seaman Apprentice"],
        ["SUP3RSONiC", "Seaman Apprentice"],
        ["Talas", "Seaman Apprentice"],
        ["theeboris", "Seaman Apprentice"],
        ["TheGamersGroup", "Seaman Apprentice"],
        ["TheNumberCruncher", "Seaman Apprentice"],
        ["ThyPowderBoy", "Seaman Apprentice"],
        ["tommers", "Seaman Apprentice"],
        ["TPT-_-", "Seaman Apprentice"],
        ["TPT-BANK", "Seaman Apprentice"],
        ["TPTCreator", "Seaman Apprentice"],
        ["TPTRules", "Seaman Apprentice"],
        ["tronboy9309", "Seaman Apprentice"],
        ["VIP84", "Seaman Apprentice"],
        ["wardwi", "Seaman Apprentice"],
        ["Wrhub", "Seaman Apprentice"],
        ["xetalim", "Seaman Apprentice"],
        ["Xoner", "Seaman Apprentice"],
        ["YouCantHandleTheWojo", "Seaman Apprentice"]],
    "probationary": [],
    "resigned": ["Amy", "BigPig", "billion57", "Ceejaybee", "Darthan", "fireball5000", "Hopian", "h4zardz1", "PowderTech1350", "vusicia"],
    "banned": ["CatAnimation", "Goodiesohhi"]
}


