{
    "links": {},
    // These links are displayed beneath the "Forum Profile" link.
    // Example: "links": {"Website": "http://asdf.com",
    //                    "Facebook": "http://facebook.com/asdf"}

    // And this is the main part. It's normal HTML and will be inserted into the
    // page directly.
    // ==> Remember that a normal newline here would break the JSON file, use
    //     <br> instead.
    "description": "There was no page created for this division yet.",
    "requirements": [],
    "members": []
}
