{
    "links": {
        "Group post": "http://powdertoy.co.uk/Groups/Thread/View.html?Group=832&Thread=1755"
    },

    "description": "The role of this division is to help small groups stand on their feet and gain more members by joining them, moderating the group and by inviting more members.",
    "requirements": ["There aren't any requirements set for this division."],
    "members": ["dom2mom", "Mrprocom", "Sandwichlizard"]
}
