{
    "links": {
        "Group post": "http://powdertoy.co.uk/Groups/Thread/View.html?Group=832&Thread=1762"
    },

    "description": "The idea with this division is to tie BMN back to the actual game, rather than just being a disembodied forum community. Our role is part education, part discovery– the less experienced members can learn off the more experienced members, while the more experienced members can collaborate and produce something of real value. Skill is the main factor in determining your rank within the division.",
    "requirements": ["There aren't any requirements set for this division."],
    "members": ["minecraft-physics", "Sandwichlizard", "dom2mom", "io", "KB", "Mrprocom", "nijalninja98", "PyroDude"]
}
