{
    "awards": {
        "Front Page": 4,
        "Leadership": 0,
        "Admirals Counsel": 0,
        "Weapons Specialist": 0,
        "Electrician": 0
    },

    "rank": "Chief Warrant",
    "rank_comment": "Lower Half; Admirals Counsel",

    "voucher": true,
    "safe": 1,

    "links": {},

    "page": [
        "First Training Officer at the rank of Commander.",
        "Very eager to train new recruits. Very easy to work with as well.",
        "Has been demoted to Chief Warrant but will have the same powers and duties as of an Admiral"
    ]
}
