{
    "awards": {},

    "rank": "Admiral",
    "rank_comment": "Upper Half; Admirals Counsel",

    "voucher": false,
    "safe": 1,

    "links": {},

    "page": ["Very active member, makes good engines."]
}
